id,name,model_id:id,group_id:id,perm_read,perm_write,perm_create,perm_unlink
access_library_checkout,library_checkout.library_checkout,model_library_checkout,base.group_user,1,1,1,1
access_library_checkout_line,library_checkout.library_checkout,model_library_checkout_line,base.group_user,1,1,1,1
access_library_checkout_massmessage,library_checkout.library_checkout,model_library_checkout_massmessage,base.group_user,1,1,1,1
access_library_checkout_stage,library_checkout.library_checkout,model_library_checkout_stage,base.group_user,1,1,1,1


